<svg width="20" height="20" viewBox="0 0 20 20" fill="none" xmlns="http://www.w3.org/2000/svg">
<path d="M8.5897 11.4102L12.6282 7.37174M16.7593 4.90714L13.3504 15.986C13.0449 16.9791 12.8921 17.4757 12.6286 17.6404C12.4001 17.7831 12.1168 17.8066 11.8679 17.7033C11.5809 17.5842 11.3482 17.1195 10.8835 16.1901L8.72439 11.8719C8.65064 11.7244 8.61373 11.6506 8.56447 11.5867C8.52076 11.53 8.47013 11.4791 8.41342 11.4354C8.34952 11.3862 8.27558 11.3493 8.12809 11.2756L3.80983 9.11643C2.88041 8.65172 2.41566 8.41946 2.29657 8.13244C2.19329 7.88353 2.21684 7.59995 2.35964 7.37141C2.52429 7.10788 3.02093 6.95514 4.0141 6.64955L15.0929 3.24068C15.8737 3.00043 16.264 2.88029 16.5277 2.97711C16.7575 3.06145 16.9387 3.24249 17.023 3.47221C17.1198 3.73594 16.9996 4.12635 16.7593 4.90714Z" stroke="white" stroke-width="1.4" stroke-linecap="round" stroke-linejoin="round"/>
</svg>
